{
  "variables": {
    "linode_api_token": ""
  },


  "builders": [{
    "type": "linode",
    "linode_token": "{{user `linode api token`}}",
    "image": "linode/debian10",
    "region": "us-east",
    "instance_type": "g6-nanode-1",
    "ssh_username": "root",
    "instance_label": "myserver-{{timestamp}}",
    "image_label": "my-image-{{timestamp}}",
    "image_description": "My first Packer image"
  }]
}
